-a="/Users/albertstevens/UnityProjects/IntegrationTestProject/Library/PlayerScriptAssemblies/Assembly-CSharp.dll"
-a="/Users/albertstevens/UnityProjects/IntegrationTestProject/Library/PlayerScriptAssemblies/UnityEngine.TestRunner.dll"
-a="/Users/albertstevens/UnityProjects/IntegrationTestProject/Library/PlayerScriptAssemblies/Unity.Timeline.dll"
-a="/Users/albertstevens/UnityProjects/IntegrationTestProject/Library/PlayerScriptAssemblies/Unity.TextMeshPro.dll"
-a="/Users/albertstevens/UnityProjects/IntegrationTestProject/Library/PlayerScriptAssemblies/UnityEngine.UI.dll"
-a="/Users/albertstevens/UnityProjects/IntegrationTestProject/Library/PackageCache/com.unity.nuget.newtonsoft-json@2.0.0/Runtime/AOT/Newtonsoft.Json.dll"
-a="/Users/albertstevens/UnityProjects/IntegrationTestProject/Assets/GameAnalytics/Plugins/SamsungTV/Mono.Data.Sqlite.dll"
-a="/Users/albertstevens/UnityProjects/IntegrationTestProject/Assets/GameAnalytics/Plugins/SamsungTV/GameAnalytics.SamsungTV.dll"
-a="/Users/albertstevens/UnityProjects/IntegrationTestProject/Library/PackageCache/com.unity.nuget.newtonsoft-json@2.0.0/Runtime/Portable/Newtonsoft.Json.dll"
-a="/Users/albertstevens/UnityProjects/IntegrationTestProject/Library/PackageCache/com.unity.nuget.newtonsoft-json@2.0.0/Runtime/Newtonsoft.Json.dll"
-a="/Users/albertstevens/UnityProjects/IntegrationTestProject/Library/PackageCache/com.unity.ext.nunit@1.0.6/net35/unity-custom/nunit.framework.dll"
-a="/Users/albertstevens/UnityProjects/IntegrationTestProject/Assets/GameAnalytics/Plugins/GameAnalytics.dll"
-s="/Applications/Unity/Hub/Editor/2020.3.28f1/Unity.app/Contents/Managed/UnityEngine"
-s="/Users/albertstevens/UnityProjects/IntegrationTestProject/Library/PlayerScriptAssemblies"
-s="/Users/albertstevens/UnityProjects/IntegrationTestProject/Library/PackageCache/com.unity.nuget.newtonsoft-json@2.0.0/Runtime/AOT"
-s="/Users/albertstevens/UnityProjects/IntegrationTestProject/Assets/GameAnalytics/Plugins/SamsungTV"
-s="/Users/albertstevens/UnityProjects/IntegrationTestProject/Library/PackageCache/com.unity.nuget.newtonsoft-json@2.0.0/Runtime/Portable"
-s="/Users/albertstevens/UnityProjects/IntegrationTestProject/Library/PackageCache/com.unity.nuget.newtonsoft-json@2.0.0/Runtime"
-s="/Users/albertstevens/UnityProjects/IntegrationTestProject/Library/PackageCache/com.unity.ext.nunit@1.0.6/net35/unity-custom"
-s="/Users/albertstevens/UnityProjects/IntegrationTestProject/Assets/GameAnalytics/Plugins"
-s="/Applications/Unity/Hub/Editor/2020.3.28f1/Unity.app/Contents/Managed/UnityEngine"
-s="/Applications/Unity/Hub/Editor/2020.3.28f1/Unity.app/Contents/NetStandard/ref/2.0.0"
-s="/Applications/Unity/Hub/Editor/2020.3.28f1/Unity.app/Contents/NetStandard/compat/2.0.0/shims/netstandard"
-s="/Applications/Unity/Hub/Editor/2020.3.28f1/Unity.app/Contents/NetStandard/Extensions/2.0.0"
-s="/Applications/Unity/Hub/Editor/2020.3.28f1/Unity.app/Contents/NetStandard/compat/2.0.0/shims/netfx"
-o="/Users/albertstevens/UnityProjects/IntegrationTestProject/Library/BuildPlayerData/Player"
-rn="RuntimeInitializeOnLoads.json"
-tn="TypeDb-All.json"
